Text Mining Crime and Punishment & Anna Karenina: A Tidytext Approach
…
Now, we should separate the bigram column in two, in order to remove stop words and count the most common bigrams:

Crime and Punishment

# bigrams crime and punishment
bigrams_cp <- cp_ngram %>%
  separate(bigram, c("w1", "w2"), sep = " ") %>%
  filter(!w1 %in% stop_words$word) %>%
  filter(!w2 %in% stop_words$word) %>%
  count(w1, w2, sort = TRUE)

bigrams_cp 

## # A tibble: 10,462 x 3
##    w1        w2               n
##    <chr>     <chr>        <int>
##  1 katerina  ivanovna       163
##  2 pyotr     petrovitch     140
##  3 avdotya   romanovna       98
##  4 pulcheria alexandrovna    97
##  5 rodion    romanovitch     78
##  6 porfiry   petrovitch      71
##  7 marfa     petrovna        64
##  8 sofya     semyonovna      59
##  9 amalia    ivanovna        46
## 10 ha        ha              37
## # ... with 10,452 more rows

Katerina Ivanovna, Sonia’s stepmom and Raskolnikov’s girlfriend in “Crime and Punishement, is the most common bigram.

Anna Karenina

bigrams_ak <- ak_ngram %>%
  separate(bigram, c("w1", "w2"), sep = " ") %>%
  filter(!w1 %in% stop_words$word) %>%
  filter(!w2 %in% stop_words$word) %>%
  count(w1, w2, sort = TRUE)

bigrams_ak 

## # A tibble: 18,970 x 3
##    w1         w2                 n
##    <chr>      <chr>          <int>
##  1 stepan     arkadyevitch     435
##  2 alexey     alexandrovitch   428
##  3 sergey     ivanovitch       242
##  4 darya      alexandrovna     166
##  5 lidia      ivanovna          85
##  6 countess   lidia             74
##  7 agafea     mihalovna         53
##  8 anna       arkadyevna        50
##  9 konstantin levin             44
## 10 looked     round             43
## # ... with 18,960 more rows
…
In “Anna Karenina”, the word Levin is more frequently paired with “Konstantin”, his first name, “answered”, “looked”, and “heard”.

To finalize our analysis, we will use the widyr package to see the correlations between pairs of words. With the pairwise_cor() we can compute these correlations for each novel.

# widyr use of pairwise_cor function
# crime and punishment
cp_new %>%
  mutate(section = row_number() %/% 20) %>%
  add_count(word) %>%
  filter(section > 0, n > 200) %>%
  pairwise_cor(word, section, sort = TRUE) 

## # A tibble: 182 x 3
##    item1       item2       correlation
##    <chr>       <chr>             <dbl>
##  1 katerina    ivanovna         0.790 
##  2 ivanovna    katerina         0.790 
##  3 sonia       katerina         0.163 
##  4 katerina    sonia            0.163 
##  5 sonia       ivanovna         0.141 
##  6 ivanovna    sonia            0.141 
##  7 looked      eyes             0.108 
##  8 eyes        looked           0.108 
##  9 razumihin   raskolnikov      0.0559
## 10 raskolnikov razumihin        0.0559
## # ... with 172 more rows
words_cors_cp <- cp_new %>%
  mutate(section = row_number() %/% 20) %>%
  filter(section > 0) %>%
  group_by(word) %>%
  filter(n() > 100) %>%
  pairwise_cor(word, section, sort = TRUE)

# anna karenina
ak_new %>%
  mutate(section = row_number() %/% 20) %>%
  add_count(word) %>%
  filter(section > 0, n > 200) %>%
  pairwise_cor(word, section, sort = TRUE) 

## # A tibble: 1,980 x 3
##    item1          item2          correlation
##    <chr>          <chr>                <dbl>
##  1 arkadyevitch   stepan               0.922
##  2 stepan         arkadyevitch         0.922
##  3 ivanovitch     sergey               0.910
##  4 sergey         ivanovitch           0.910
##  5 alexandrovitch alexey               0.885
##  6 alexey         alexandrovitch       0.885
##  7 looked         round                0.145
##  8 round          looked               0.145
##  9 ivanovitch     brother              0.137
## 10 brother        ivanovitch           0.137
## # ... with 1,970 more rows
…
