Hints to deal with Missing Values in R
…
The values in the table show that 6.875% of the cases in the Quarterback variable correspond to missing values, while only 0.125% correspond to missing values in the Special Teamer variable. The plot does not show all the variable names because of some issue that I could not solve. Nonetheless, from the table it is clear the proportion of missing values in each variable.

Now the last step anwers the third question: What should I do with the missing values? The simplest and more direct way to deal with missing data is to omit it from our data frame. In this case, we can use the na.omit() function.

nfl_complete <- na.omit(nfl) 
any(is.na(nfl_complete))

## [1] FALSE

The downside being the deletion of too many observations of our data which could have been useful to our analysis. In this case, we could delete only missing values of a specific variable. To do that, go ahead and use the drop_na() function form the tidyr() package.

nfl %>%
  drop_na("Special Teamer")

## # A tibble: 799 x 11
##     year Cornerback `Defensive Lineman` Linebacker `Offensive Lineman`
##    <dbl>      <dbl>               <dbl>      <dbl>               <dbl>
##  1  2011   11265916            17818000   16420000            15960000
##  2  2011   11000000            16200000   15623000            12800000
##  3  2011   10000000            12476000   11825000            11767500
##  4  2011   10000000            11904706   10083333            10358200
##  5  2011   10000000            11762782   10020000            10000000
##  6  2011    9244117            11340000    8150000             9859166
##  7  2011    8000000            10000000    7812500             9500000
##  8  2011    7900000             9482500    7700000             9420000
##  9  2011    7400000             8450000    7200000             8880000
## 10  2011    7000000             8383266    7100000             8686750
## # ... with 789 more rows, and 6 more variables: Quarterback <dbl>,
## #   `Running Back` <dbl>, Safety <dbl>, `Special Teamer` <dbl>, `Tight
## #   End` <dbl>, `Wide Receiver` <dbl>

In the example, we have deleted all missing values corresponding to the Special Teamer column.

Two other neat functions from the tidyr() package can also be of great help. The fill() and replace_na() can impute values where before were missing values. The fill() function allows to replace the missing values with the most recent non-missing value present before or after the missing value. There is an argument in this function called .direction which enables you to choose if it is the nearest value being displayed before or after the missing value.

If we write the code as follows:

nfl %>%
  fill(Quarterback, .direction = "down")

## # A tibble: 800 x 11
##     year Cornerback `Defensive Lineman` Linebacker `Offensive Lineman`
##    <dbl>      <dbl>               <dbl>      <dbl>               <dbl>
##  1  2011   11265916            17818000   16420000            15960000
##  2  2011   11000000            16200000   15623000            12800000
##  3  2011   10000000            12476000   11825000            11767500
##  4  2011   10000000            11904706   10083333            10358200
##  5  2011   10000000            11762782   10020000            10000000
##  6  2011    9244117            11340000    8150000             9859166
##  7  2011    8000000            10000000    7812500             9500000
##  8  2011    7900000             9482500    7700000             9420000
##  9  2011    7400000             8450000    7200000             8880000
## 10  2011    7000000             8383266    7100000             8686750
## # ... with 790 more rows, and 6 more variables: Quarterback <dbl>,
## #   `Running Back` <dbl>, Safety <dbl>, `Special Teamer` <dbl>, `Tight
## #   End` <dbl>, `Wide Receiver` <dbl>

With .direction = â€œdownâ€, it will show (?) the value appearing before the missing value which will fill the NA values, but if we write with .direction = â€œupâ€ the reserve will occur. Meaning, the value being displayed after the NA value will fill the space where the missing value once was.

nfl %>%
  fill(Quarterback, .direction = "up")

## # A tibble: 800 x 11
##     year Cornerback `Defensive Lineman` Linebacker `Offensive Lineman`
##    <dbl>      <dbl>               <dbl>      <dbl>               <dbl>
##  1  2011   11265916            17818000   16420000            15960000
##  2  2011   11000000            16200000   15623000            12800000
##  3  2011   10000000            12476000   11825000            11767500
##  4  2011   10000000            11904706   10083333            10358200
##  5  2011   10000000            11762782   10020000            10000000
##  6  2011    9244117            11340000    8150000             9859166
##  7  2011    8000000            10000000    7812500             9500000
##  8  2011    7900000             9482500    7700000             9420000
##  9  2011    7400000             8450000    7200000             8880000
## 10  2011    7000000             8383266    7100000             8686750
## # ... with 790 more rows, and 6 more variables: Quarterback <dbl>,
## #   `Running Back` <dbl>, Safety <dbl>, `Special Teamer` <dbl>, `Tight
## #   End` <dbl>, `Wide Receiver` <dbl>

Rather, if we want to replace the missing value with the mean or median of the respective variable we could use replace_na.

# with the mean
nfl %>% 
  replace_na(replace = list(Quarterback = mean(.$Quarterback, na.rm =TRUE),
             `Special Teamer` = mean(.$`Special Teamer`, na.rm =TRUE)))

## # A tibble: 800 x 11
##     year Cornerback `Defensive Lineman` Linebacker `Offensive Lineman`
##    <dbl>      <dbl>               <dbl>      <dbl>               <dbl>
##  1  2011   11265916            17818000   16420000            15960000
##  2  2011   11000000            16200000   15623000            12800000
##  3  2011   10000000            12476000   11825000            11767500
##  4  2011   10000000            11904706   10083333            10358200
##  5  2011   10000000            11762782   10020000            10000000
##  6  2011    9244117            11340000    8150000             9859166
##  7  2011    8000000            10000000    7812500             9500000
##  8  2011    7900000             9482500    7700000             9420000
##  9  2011    7400000             8450000    7200000             8880000
## 10  2011    7000000             8383266    7100000             8686750
## # ... with 790 more rows, and 6 more variables: Quarterback <dbl>,
## #   `Running Back` <dbl>, Safety <dbl>, `Special Teamer` <dbl>, `Tight
## #   End` <dbl>, `Wide Receiver` <dbl>

# with the median
nfl %>% 
  replace_na(replace = list(Quarterback = median(.$Quarterback, na.rm =TRUE),
             `Special Teamer` = median(.$`Special Teamer`, na.rm =TRUE)))

## # A tibble: 800 x 11
##     year Cornerback `Defensive Lineman` Linebacker `Offensive Lineman`
##    <dbl>      <dbl>               <dbl>      <dbl>               <dbl>
##  1  2011   11265916            17818000   16420000            15960000
##  2  2011   11000000            16200000   15623000            12800000
##  3  2011   10000000            12476000   11825000            11767500
##  4  2011   10000000            11904706   10083333            10358200
##  5  2011   10000000            11762782   10020000            10000000
##  6  2011    9244117            11340000    8150000             9859166
##  7  2011    8000000            10000000    7812500             9500000
##  8  2011    7900000             9482500    7700000             9420000
##  9  2011    7400000             8450000    7200000             8880000
## 10  2011    7000000             8383266    7100000             8686750
## # ... with 790 more rows, and 6 more variables: Quarterback <dbl>,
## #   `Running Back` <dbl>, Safety <dbl>, `Special Teamer` <dbl>, `Tight
## #   End` <dbl>, `Wide Receiver` <dbl>

A more elegant approach - I believe - to substitute missing values with the mean or median is to use the functions available in the package tidyimpute. As the code below shows, it`s very simple to impute the mean or median to our missing values.

# with mean
nfl %>%
  impute_mean(Quarterback, `Special Teamer`)

## # A tibble: 800 x 11
##     year Cornerback `Defensive Lineman` Linebacker `Offensive Lineman`
##    <dbl>      <dbl>               <dbl>      <dbl>               <dbl>
##  1  2011   11265916            17818000   16420000            15960000
##  2  2011   11000000            16200000   15623000            12800000
##  3  2011   10000000            12476000   11825000            11767500
##  4  2011   10000000            11904706   10083333            10358200
##  5  2011   10000000            11762782   10020000            10000000
##  6  2011    9244117            11340000    8150000             9859166
##  7  2011    8000000            10000000    7812500             9500000
##  8  2011    7900000             9482500    7700000             9420000
##  9  2011    7400000             8450000    7200000             8880000
## 10  2011    7000000             8383266    7100000             8686750
## # ... with 790 more rows, and 6 more variables: Quarterback <dbl>,
## #   `Running Back` <dbl>, Safety <dbl>, `Special Teamer` <dbl>, `Tight
## #   End` <dbl>, `Wide Receiver` <dbl>

# with the median
nfl %>%
  impute_median(Quarterback, `Special Teamer`)

## # A tibble: 800 x 11
##     year Cornerback `Defensive Lineman` Linebacker `Offensive Lineman`
##    <dbl>      <dbl>               <dbl>      <dbl>               <dbl>
##  1  2011   11265916            17818000   16420000            15960000
##  2  2011   11000000            16200000   15623000            12800000
##  3  2011   10000000            12476000   11825000            11767500
##  4  2011   10000000            11904706   10083333            10358200
##  5  2011   10000000            11762782   10020000            10000000
##  6  2011    9244117            11340000    8150000             9859166
##  7  2011    8000000            10000000    7812500             9500000
##  8  2011    7900000             9482500    7700000             9420000
##  9  2011    7400000             8450000    7200000             8880000
## 10  2011    7000000             8383266    7100000             8686750
## # ... with 790 more rows, and 6 more variables: Quarterback <dbl>,
## #   `Running Back` <dbl>, Safety <dbl>, `Special Teamer` <dbl>, `Tight
## #   End` <dbl>, `Wide Receiver` <dbl>
…
