Euro vs Dollar: Working with Lubridate and some other packages
…
39

1

Let us imagine that we had only the year, month, and day variables in our data frame. We could turn these three variables into a date variable with the make_date function.

euro_vs_dollar_tbl %>%
  mutate(new_year_var = make_date(
    year = year, 
    month = month, 
    day = day)) %>%
  select(new_year_var, everything())

## # A tibble: 5,224 x 9
##    new_year_var date       value  year month   day week_day day_year  qter
##    <date>       <date>     <dbl> <dbl> <ord> <int> <ord>       <dbl> <int>
##  1 1999-01-04   1999-01-04  1.18  1999 jan       4 seg             4     1
##  2 1999-01-05   1999-01-05  1.18  1999 jan       5 ter             5     1
##  3 1999-01-06   1999-01-06  1.16  1999 jan       6 qua             6     1
##  4 1999-01-07   1999-01-07  1.17  1999 jan       7 qui             7     1
##  5 1999-01-08   1999-01-08  1.16  1999 jan       8 sex             8     1
##  6 1999-01-11   1999-01-11  1.15  1999 jan      11 seg            11     1
##  7 1999-01-12   1999-01-12  1.16  1999 jan      12 ter            12     1
##  8 1999-01-13   1999-01-13  1.17  1999 jan      13 qua            13     1
##  9 1999-01-14   1999-01-14  1.17  1999 jan      14 qui            14     1
## 10 1999-01-15   1999-01-15  1.16  1999 jan      15 sex            15     1
## # ... with 5,214 more rows
…
