Clustering the Pharmaceutical Industry Stocks
…
Yet our goal is to map these pharmaceutical companies with the respective cluster assignment. We will use augment from the broom package to assign each cluster to our respective pharmaceutical company. Right after , we will join the K-means data frame with the umap object.

# use augment to assign the clusters to our pharmaceutical companies
kmeans_tbl <- augment(k_cluster3, pharmaceuticals_tbl) %>% 
  dplyr::select(pharma = .rownames, .cluster)

# join the kmeans data frame with the umap object
kmeans_umap <- kmeans_tbl %>% 
  left_join(umap_obj, by = c("pharma" = "Pharma"))

kmeans_umap

## # A tibble: 21 x 4
##    pharma                       .cluster     V1      V2
##    <chr>                        <fct>     <dbl>   <dbl>
##  1 Abbott Laboratories          3        -0.560  0.462 
##  2 Allergan, Inc.               2         0.929  1.43  
##  3 Amersham plc                 2         0.335  0.350 
##  4 AstraZeneca PLC              3        -0.529 -0.564 
##  5 Aventis                      1         1.54  -0.0931
##  6 Bayer AG                     2         0.964  0.727 
##  7 Bristol-Myers Squibb Company 3        -1.11  -0.0125
##  8 Chattem, Inc                 1         0.518  1.06  
##  9 Elan Corporation, plc        1         0.946 -0.471 
## 10 Eli Lilly and Company        3        -1.14   0.760 
## # ... with 11 more rows
…
